{
  "formatVersion": 1,
  "database": {
    "version": 1,
    "identityHash": "96cc8e7540ef85c2fac85af44ebeeb6c",
    "entities": [
      {
        "tableName": "Trip",
        "createSql": "CREATE TABLE IF NOT EXISTS `${TABLE_NAME}` (`id` INTEGER PRIMARY KEY AUTOINCREMENT NOT NULL, `name` TEXT, `country` INTEGER NOT NULL, `startDate` INTEGER, `endDate` INTEGER, `budget` INTEGER NOT NULL, FOREIGN KEY(`country`) REFERENCES `Country`(`id`) ON UPDATE NO ACTION ON DELETE NO ACTION , FOREIGN KEY(`budget`) REFERENCES `Budget`(`id`) ON UPDATE NO ACTION ON DELETE NO ACTION )",
        "fields": [
          {
            "fieldPath": "id",
            "columnName": "id",
            "affinity": "INTEGER",
            "notNull": true
          },
          {
            "fieldPath": "name",
            "columnName": "name",
            "affinity": "TEXT",
            "notNull": false
          },
          {
            "fieldPath": "country",
            "columnName": "country",
            "affinity": "INTEGER",
            "notNull": true
          },
          {
            "fieldPath": "startDate",
            "columnName": "startDate",
            "affinity": "INTEGER",
            "notNull": false
          },
          {
            "fieldPath": "endDate",
            "columnName": "endDate",
            "affinity": "INTEGER",
            "notNull": false
          },
          {
            "fieldPath": "budget",
            "columnName": "budget",
            "affinity": "INTEGER",
            "notNull": true
          }
        ],
        "primaryKey": {
          "columnNames": [
            "id"
          ],
          "autoGenerate": true
        },
        "indices": [
          {
            "name": "index_Trip_id",
            "unique": false,
            "columnNames": [
              "id"
            ],
            "createSql": "CREATE  INDEX `index_Trip_id` ON `${TABLE_NAME}` (`id`)"
          }
        ],
        "foreignKeys": [
          {
            "table": "Country",
            "onDelete": "NO ACTION",
            "onUpdate": "NO ACTION",
            "columns": [
              "country"
            ],
            "referencedColumns": [
              "id"
            ]
          },
          {
            "table": "Budget",
            "onDelete": "NO ACTION",
            "onUpdate": "NO ACTION",
            "columns": [
              "budget"
            ],
            "referencedColumns": [
              "id"
            ]
          }
        ]
      },
      {
        "tableName": "Country",
        "createSql": "CREATE TABLE IF NOT EXISTS `${TABLE_NAME}` (`id` INTEGER PRIMARY KEY AUTOINCREMENT NOT NULL, `name` TEXT NOT NULL)",
        "fields": [
          {
            "fieldPath": "id",
            "columnName": "id",
            "affinity": "INTEGER",
            "notNull": true
          },
          {
            "fieldPath": "name",
            "columnName": "name",
            "affinity": "TEXT",
            "notNull": true
          }
        ],
        "primaryKey": {
          "columnNames": [
            "id"
          ],
          "autoGenerate": true
        },
        "indices": [
          {
            "name": "index_Country_name",
            "unique": true,
            "columnNames": [
              "name"
            ],
            "createSql": "CREATE UNIQUE INDEX `index_Country_name` ON `${TABLE_NAME}` (`name`)"
          }
        ],
        "foreignKeys": []
      },
      {
        "tableName": "Budget",
        "createSql": "CREATE TABLE IF NOT EXISTS `${TABLE_NAME}` (`id` INTEGER PRIMARY KEY AUTOINCREMENT NOT NULL, `currentBudget` INTEGER NOT NULL, `limitBudget` INTEGER NOT NULL)",
        "fields": [
          {
            "fieldPath": "id",
            "columnName": "id",
            "affinity": "INTEGER",
            "notNull": true
          },
          {
            "fieldPath": "currentBudget",
            "columnName": "currentBudget",
            "affinity": "INTEGER",
            "notNull": true
          },
          {
            "fieldPath": "limitBudget",
            "columnName": "limitBudget",
            "affinity": "INTEGER",
            "notNull": true
          }
        ],
        "primaryKey": {
          "columnNames": [
            "id"
          ],
          "autoGenerate": true
        },
        "indices": [
          {
            "name": "index_Budget_id",
            "unique": false,
            "columnNames": [
              "id"
            ],
            "createSql": "CREATE  INDEX `index_Budget_id` ON `${TABLE_NAME}` (`id`)"
          }
        ],
        "foreignKeys": []
      },
      {
        "tableName": "Spending",
        "createSql": "CREATE TABLE IF NOT EXISTS `${TABLE_NAME}` (`id` INTEGER PRIMARY KEY AUTOINCREMENT NOT NULL, `idBudget` INTEGER NOT NULL, `title` TEXT NOT NULL, `amount` INTEGER NOT NULL, `dateSpending` INTEGER, FOREIGN KEY(`idBudget`) REFERENCES `Budget`(`id`) ON UPDATE NO ACTION ON DELETE NO ACTION )",
        "fields": [
          {
            "fieldPath": "id",
            "columnName": "id",
            "affinity": "INTEGER",
            "notNull": true
          },
          {
            "fieldPath": "idBudget",
            "columnName": "idBudget",
            "affinity": "INTEGER",
            "notNull": true
          },
          {
            "fieldPath": "title",
            "columnName": "title",
            "affinity": "TEXT",
            "notNull": true
          },
          {
            "fieldPath": "amount",
            "columnName": "amount",
            "affinity": "INTEGER",
            "notNull": true
          },
          {
            "fieldPath": "dateSpending",
            "columnName": "dateSpending",
            "affinity": "INTEGER",
            "notNull": false
          }
        ],
        "primaryKey": {
          "columnNames": [
            "id"
          ],
          "autoGenerate": true
        },
        "indices": [
          {
            "name": "index_Spending_id",
            "unique": false,
            "columnNames": [
              "id"
            ],
            "createSql": "CREATE  INDEX `index_Spending_id` ON `${TABLE_NAME}` (`id`)"
          }
        ],
        "foreignKeys": [
          {
            "table": "Budget",
            "onDelete": "NO ACTION",
            "onUpdate": "NO ACTION",
            "columns": [
              "idBudget"
            ],
            "referencedColumns": [
              "id"
            ]
          }
        ]
      },
      {
        "tableName": "PictureInfos",
        "createSql": "CREATE TABLE IF NOT EXISTS `${TABLE_NAME}` (`id` INTEGER PRIMARY KEY AUTOINCREMENT NOT NULL, `idTrip` INTEGER NOT NULL, `titlePicture` TEXT)",
        "fields": [
          {
            "fieldPath": "id",
            "columnName": "id",
            "affinity": "INTEGER",
            "notNull": true
          },
          {
            "fieldPath": "idTrip",
            "columnName": "idTrip",
            "affinity": "INTEGER",
            "notNull": true
          },
          {
            "fieldPath": "titlePicture",
            "columnName": "titlePicture",
            "affinity": "TEXT",
            "notNull": false
          }
        ],
        "primaryKey": {
          "columnNames": [
            "id"
          ],
          "autoGenerate": true
        },
        "indices": [
          {
            "name": "index_PictureInfos_id",
            "unique": false,
            "columnNames": [
              "id"
            ],
            "createSql": "CREATE  INDEX `index_PictureInfos_id` ON `${TABLE_NAME}` (`id`)"
          }
        ],
        "foreignKeys": []
      },
      {
        "tableName": "ToDoList",
        "createSql": "CREATE TABLE IF NOT EXISTS `${TABLE_NAME}` (`id` INTEGER PRIMARY KEY AUTOINCREMENT NOT NULL, `idTrip` INTEGER NOT NULL, `name` TEXT)",
        "fields": [
          {
            "fieldPath": "id",
            "columnName": "id",
            "affinity": "INTEGER",
            "notNull": true
          },
          {
            "fieldPath": "idTrip",
            "columnName": "idTrip",
            "affinity": "INTEGER",
            "notNull": true
          },
          {
            "fieldPath": "name",
            "columnName": "name",
            "affinity": "TEXT",
            "notNull": false
          }
        ],
        "primaryKey": {
          "columnNames": [
            "id"
          ],
          "autoGenerate": true
        },
        "indices": [
          {
            "name": "index_ToDoList_id",
            "unique": false,
            "columnNames": [
              "id"
            ],
            "createSql": "CREATE  INDEX `index_ToDoList_id` ON `${TABLE_NAME}` (`id`)"
          }
        ],
        "foreignKeys": []
      },
      {
        "tableName": "CheckList",
        "createSql": "CREATE TABLE IF NOT EXISTS `${TABLE_NAME}` (`id` INTEGER PRIMARY KEY AUTOINCREMENT NOT NULL, `idTrip` INTEGER NOT NULL, `name` TEXT, FOREIGN KEY(`idTrip`) REFERENCES `Trip`(`id`) ON UPDATE NO ACTION ON DELETE NO ACTION )",
        "fields": [
          {
            "fieldPath": "id",
            "columnName": "id",
            "affinity": "INTEGER",
            "notNull": true
          },
          {
            "fieldPath": "idTrip",
            "columnName": "idTrip",
            "affinity": "INTEGER",
            "notNull": true
          },
          {
            "fieldPath": "name",
            "columnName": "name",
            "affinity": "TEXT",
            "notNull": false
          }
        ],
        "primaryKey": {
          "columnNames": [
            "id"
          ],
          "autoGenerate": true
        },
        "indices": [
          {
            "name": "index_CheckList_id",
            "unique": false,
            "columnNames": [
              "id"
            ],
            "createSql": "CREATE  INDEX `index_CheckList_id` ON `${TABLE_NAME}` (`id`)"
          }
        ],
        "foreignKeys": [
          {
            "table": "Trip",
            "onDelete": "NO ACTION",
            "onUpdate": "NO ACTION",
            "columns": [
              "idTrip"
            ],
            "referencedColumns": [
              "id"
            ]
          }
        ]
      },
      {
        "tableName": "ToDoListItem",
        "createSql": "CREATE TABLE IF NOT EXISTS `${TABLE_NAME}` (`date` INTEGER, `idToDoList` INTEGER NOT NULL, `id` INTEGER PRIMARY KEY AUTOINCREMENT NOT NULL, `name` TEXT, `checked` INTEGER, FOREIGN KEY(`idToDoList`) REFERENCES `Budget`(`id`) ON UPDATE NO ACTION ON DELETE NO ACTION )",
        "fields": [
          {
            "fieldPath": "date",
            "columnName": "date",
            "affinity": "INTEGER",
            "notNull": false
          },
          {
            "fieldPath": "idToDoList",
            "columnName": "idToDoList",
            "affinity": "INTEGER",
            "notNull": true
          },
          {
            "fieldPath": "id",
            "columnName": "id",
            "affinity": "INTEGER",
            "notNull": true
          },
          {
            "fieldPath": "name",
            "columnName": "name",
            "affinity": "TEXT",
            "notNull": false
          },
          {
            "fieldPath": "checked",
            "columnName": "checked",
            "affinity": "INTEGER",
            "notNull": false
          }
        ],
        "primaryKey": {
          "columnNames": [
            "id"
          ],
          "autoGenerate": true
        },
        "indices": [
          {
            "name": "index_ToDoListItem_id",
            "unique": false,
            "columnNames": [
              "id"
            ],
            "createSql": "CREATE  INDEX `index_ToDoListItem_id` ON `${TABLE_NAME}` (`id`)"
          }
        ],
        "foreignKeys": [
          {
            "table": "Budget",
            "onDelete": "NO ACTION",
            "onUpdate": "NO ACTION",
            "columns": [
              "idToDoList"
            ],
            "referencedColumns": [
              "id"
            ]
          }
        ]
      },
      {
        "tableName": "CheckListItem",
        "createSql": "CREATE TABLE IF NOT EXISTS `${TABLE_NAME}` (`number` INTEGER NOT NULL, `idCheckList` INTEGER NOT NULL, `id` INTEGER PRIMARY KEY AUTOINCREMENT NOT NULL, `name` TEXT, `checked` INTEGER, FOREIGN KEY(`idCheckList`) REFERENCES `CheckList`(`id`) ON UPDATE NO ACTION ON DELETE NO ACTION )",
        "fields": [
          {
            "fieldPath": "number",
            "columnName": "number",
            "affinity": "INTEGER",
            "notNull": true
          },
          {
            "fieldPath": "idCheckList",
            "columnName": "idCheckList",
            "affinity": "INTEGER",
            "notNull": true
          },
          {
            "fieldPath": "id",
            "columnName": "id",
            "affinity": "INTEGER",
            "notNull": true
          },
          {
            "fieldPath": "name",
            "columnName": "name",
            "affinity": "TEXT",
            "notNull": false
          },
          {
            "fieldPath": "checked",
            "columnName": "checked",
            "affinity": "INTEGER",
            "notNull": false
          }
        ],
        "primaryKey": {
          "columnNames": [
            "id"
          ],
          "autoGenerate": true
        },
        "indices": [
          {
            "name": "index_CheckListItem_id",
            "unique": false,
            "columnNames": [
              "id"
            ],
            "createSql": "CREATE  INDEX `index_CheckListItem_id` ON `${TABLE_NAME}` (`id`)"
          }
        ],
        "foreignKeys": [
          {
            "table": "CheckList",
            "onDelete": "NO ACTION",
            "onUpdate": "NO ACTION",
            "columns": [
              "idCheckList"
            ],
            "referencedColumns": [
              "id"
            ]
          }
        ]
      }
    ],
    "setupQueries": [
      "CREATE TABLE IF NOT EXISTS room_master_table (id INTEGER PRIMARY KEY,identity_hash TEXT)",
      "INSERT OR REPLACE INTO room_master_table (id,identity_hash) VALUES(42, \"96cc8e7540ef85c2fac85af44ebeeb6c\")"
    ]
  }
}